Comprehensive Guide to evanverse • evanverse
…
# Get package version
pkg_version("evanverse")
#>     package version latest    source
#> 1 evanverse   0.2.0   <NA> Not Found

🎨 Color Palette System

Available Palettes

# List all available palettes
palettes_info <- list_palettes()
print(palettes_info)
#> # A tibble: 35 × 4
#>    name           type        n_color colors    
#>    <chr>          <chr>         <int> <list>    
#>  1 contrast_duo   diverging         2 <chr [2]> 
#>  2 fire_ice_duo   diverging         2 <chr [2]> 
#>  3 polar_duo      diverging         2 <chr [2]> 
#>  4 sunset_sky     diverging         2 <chr [2]> 
#>  5 piyg           diverging         3 <chr [3]> 
#>  6 earthy_diverge diverging         5 <chr [5]> 
#>  7 gradient_rd_bu diverging        11 <chr [11]>
#>  8 earthy_triad   qualitative       3 <chr [3]> 
#>  9 primary_triad  qualitative       3 <chr [3]> 
#> 10 softtrio       qualitative       3 <chr [3]> 
#> # ℹ 25 more rows
…
